…
\#\#There are 1384167 observations and 15 variables. Of those variables,
4 are characters. Some key variables are order identiifer, product
identifier, customer identifier, order day of the week, order hour,
aisle identiier and aisle name. From the header, we see one example of
an obseration is that the product “Bulgarian Yogurt” was in asile \#
120.

\#\#I will count the number of aislde IDs and their frequencies. I will
sort the frequencies in descending order.

``` r
df %>% group_by(aisle_id) %>% summarize(n_obs = n()) %>% arrange(desc(n_obs))
```

    ## # A tibble: 134 × 2
    ##    aisle_id  n_obs
    ##       <int>  <int>
    ##  1       83 150609
    ##  2       24 150473
    ##  3      123  78493
    ##  4      120  55240
    ##  5       21  41699
    ##  6      115  36617
    ##  7       84  32644
    ##  8      107  31269
    ##  9       91  26240
    ## 10      112  23635
    ## # … with 124 more rows
…
